1;0;0;Имя 1;2004-06-05
2;0;0;Имя 2;1950-01-10;2010-01-01
3;0;0;Тимурка;2003-05-03
4;0;0;Малой;2008-09-01
5;6;0;Тимур;2003-05-03;2100-01-01
6;1;2;Диман;1987-01-01;2057-01-01
7;0;0;Тиман;1987-03-04;2099-01-01
8;0;0;Эмиль;2006-01-01;2130-01-01
9;0;0;Нигматулин Эдуард Мансурович;1970-04-16
10;0;0;Нигматулина Эльвира Авхадиевна;1979-02-07
11;9;10;Нигматулин Тимур Эдуардович;2003-05-03
12;9;10;Нигматулин Руслан Эдуардович;2006-08-03
13;9;10;Нигматулин Эмиль Эдуардович;2009-09-21
14;0;0;Тиссен Александр Рудольфович;0974-01-01
15;14;0;Тиссен Вадим Александрович;2003-10-27
16;0;0;Федя;2005-01-01
17;0;0;Кирилл;2004-01-01
18;0;0;Кузнецов Евгений Викторович;0999-01-01;1200-01-01
19;1;2;Евгений Райз;1999-01-01;1999-01-01
20;1;2;Евгений Палыч;1999-01-01
21;0;0;ТИМУР;0003-01-01
22;0;0;Тимур;2222-01-01;2223-05-03
23;1;2;flhkfldkjn;2005-01-01;2011-01-01
24;23;0;Андрей Михайлович;0003-01-01;0007-01-01
25;1;2;bcxvnn;2003-05-12;2011-12-11
26;0;0;dhgjhsdkgh;2014-11-09